\begin{tikzpicture}
    \begin{pgfonlayer}{nodelayer}
        \node [style=none, label={above left:{0}}] (0) at (-10, 0) {};
        \node [style=none, label={above:{1}}] (1) at (-8, 0) {};
        \node [style=none, label={above:{2}}] (2) at (-6, 0) {};
        \node [style=none] (3) at (-4, 0) {};
        \node [style=none] (4) at (-9, 0.75) {\tiny Convection};
        \node [style=none] (5) at (-7, 0.5) {\tiny Conduction\\ \tiny glass};
        \node [style=none] (6) at (-5, 0.75) {\tiny Convection};
        \node [style=none, label={above:{5}}] (7) at (-6, -2) {};
        \node [style=none, label={above:{4}}] (8) at (-8, -2) {};
        \node [style=none] (9) at (-4, -2) {};
        \node [style=none] (10) at (-10, -2) {};
        \node [style=none] (11) at (-5, -1.25) {\tiny Convection};
        \node [style=none] (12) at (-7, -1.5) {\tiny Conduction\\ \tiny wood};
        \node [style=none] (13) at (-9, -1.25) {\tiny Convection};
        \node [style={ct_spdt}, rotate=180] (14) at (-3, 1) {};
        \node [style=none] (15) at (-10, 2) {};
        \node [style=none] (16) at (-6, 2) {};
        \node [style=none] (17) at (-8, 2) {};
        \node [style=none] (18) at (-8, 4) {};
        \node [style=none] (19) at (-6, 4) {};
        \node [style=none] (20) at (-4, 2) {};
        \node [style=none, label={above:{3}}] (21) at (-2, 1) {};
        \node [style=none] (22) at (-7, 4.5) {\tiny Air infiltration};
        \node [style=none] (23) at (-7, 2.5) {\tiny Air exfiltration};
    \end{pgfonlayer}
    \begin{pgfonlayer}{edgelayer}
        \draw [style={ct_R}, {l_}={$\frac{1}{A h_c}$}, {o-*}] (0) to (1);
        \draw [style={ct_R}, {l_}={$\frac{\Delta x}{A k}$}, {*-*}] (1) to (2);
        \draw [style={ct_R}, {l_}={$\frac{1}{A h_c}$}, {*-}] (2) to (3);
        \draw [style={ct_R}, {l_}={$\frac{\Delta x}{A k}$}, {*-*}] (8.center) to (7.center);
        \draw [style={ct_R}, {l_}={$\frac{1}{A h_c}$}] (7.center) to (9.center);
        \draw [style={ct_R}, {l_}={$\frac{1}{A h_c}$}] (10.center) to (8.center);
        \draw [style=simple] (9.center) to (3.center);
        \draw [style=simple] (10.center) to (0.center);
        \draw [style=simple] (20.center) to (14.out 2);
        \draw [style=simple] (3.center) to (14.out 1);
        \draw [style=short, -o] (14.in) to (21.center);
        \draw [style={ct_R}, {l_}={$\frac{1}{c_{p}\rho(T_0)\dot{v}(T_0)}$}, i<={$ $}] (17.center) to (16.center);
        \draw [style={ct_R}, {l_}={$\frac{1}{c_{p}\rho(T_0)\dot{v}(T_0)}$}, i>={$ $}] (18.center) to (19.center);
        \draw [style=simple] (16.center) to (20.center);
        \draw [style=simple] (15.center) to (17.center);
        \draw [style=simple] (0.center) to (15.center);
        \draw [style=simple] (18.center) to (17.center);
        \draw [style=simple] (19.center) to (16.center);
    \end{pgfonlayer}
\end{tikzpicture}
