key,plural,description
HeatSourceNode,HeatSourceNodes,a node that represent an unlimited heat source or sink
HeatWaterSourceNode,HeatWaterSourceNodes,"a node that represent a heat and water vapor generating node, such as persons"
HeatStoreNode,HeatStoreNodes,"a node were heat flows in and out, and any excess of heat is stored"
HeatFlowNode,HeatFlowNodes,a node were heat flows in or out
ConvectionEdge,ConvectionEdges,an edge between two nodes modeling the behavior of convection heat transfer
ConductionEdge,ConductionEdges,an edge between two nodes modeling the behavior of conduction heat transfer
RadiationEdge,RadiationEdges,an edge between two nodes modeling the behavior of radiation heat transfer
MassFlowHeatCoupling,MassFlowHeatCouplings,"an edge between two nodes, modeling the transfer of heat, through mass flow"
CompositeEdge,CompositeEdges,"Edge between node, which consists of chain of edges, which could be either ConvectionEdge, ConductionEdge or RadiationEdge"
